^C:\USERS\DOGONITI\SOURCE\REPOS\HOMEWORK8\HOMEWORK8\X64\DEBUG\HOMEWORK8.OBJ
C:\USERS\DOGONITI\SOURCE\REPOS\HOMEWORK8\HOMEWORK8\X64\DEBUG\HOMEWORK8.ILK
C:\USERS\DOGONITI\SOURCE\REPOS\HOMEWORK8\X64\DEBUG\HOMEWORK8.EXE
C:\USERS\DOGONITI\SOURCE\REPOS\HOMEWORK8\X64\DEBUG\HOMEWORK8.PDB
